{
  "swagger": "2.0",
  "info": {
    "description": "Test CatYa",
    "version": "1.0.0",
    "title": "Swagger CatYa"
  },
  "host": "djynet.xyz",
  "basePath": "/v2",
  "paths": {
    "/cat": {
      "get": {
        "summary": "get cat picture URL",
        "description": "get cat picture URL",
        "produces": [
          "application/json"
        ],
        "responses": {
          "200": {
            "description": "successful operation",
            "schema": {
              "type": "string",
              "example": "https://i.imgur.com/x7X0Fxf.jpg"
            }
          }
        }
      }
    }
  },
  "externalDocs": {
    "description": "Find out more about Swagger",
    "url": "http://swagger.io"
  }
}